<svg width="79" height="73" viewBox="0 0 79 73" fill="none" xmlns="http://www.w3.org/2000/svg">
<g clip-path="url(#clip0)">
<path d="M32.4464 71.5961L24.6875 48.7134" stroke="#383838" stroke-width="3" stroke-miterlimit="10" stroke-linecap="round" stroke-linejoin="round"/>
<path d="M77.5893 1.40381L24.6875 48.7134" stroke="#383838" stroke-width="3" stroke-miterlimit="10" stroke-linecap="round" stroke-linejoin="round"/>
<path d="M77.5892 1.40381L35.832 52.223" stroke="#383838" stroke-width="3" stroke-miterlimit="10" stroke-linecap="round" stroke-linejoin="round"/>
<path d="M32.4463 71.5961L46.9766 56.1538" stroke="#383838" stroke-width="3" stroke-miterlimit="10" stroke-linecap="round" stroke-linejoin="round"/>
<path d="M32.4463 71.5962L35.832 52.2231" stroke="#383838" stroke-width="3" stroke-miterlimit="10" stroke-linecap="round" stroke-linejoin="round"/>
<path d="M24.6874 48.7134L1.41064 40.7115L77.5892 1.40381L66.3035 63.173L35.8321 52.223" stroke="#383838" stroke-width="3" stroke-miterlimit="10" stroke-linecap="round" stroke-linejoin="round"/>
</g>
<defs>
<clipPath id="clip0">
<rect width="79" height="73" fill="white"/>
</clipPath>
</defs>
</svg>
