<svg width="64" height="68" viewBox="0 0 64 68" fill="none" xmlns="http://www.w3.org/2000/svg">
<path d="M34.1707 52.3875H22.3725C19.6817 52.3875 17.6118 50.325 17.6118 47.6438C17.6118 44.9625 19.6817 42.9 22.3725 42.9H32.5148C36.0335 42.9 42.0361 36.0937 55.2832 42.9" stroke="white" stroke-width="3" stroke-miterlimit="10"/>
<path d="M55.2832 63.3188H24.8563L10.7813 59.4001L3.12284 50.5313C1.46696 48.4688 1.67394 45.5813 3.53681 43.9313C5.39968 42.2813 8.29748 42.4876 10.1604 44.3438L17.4048 52.3876H22.9935" stroke="white" stroke-width="3" stroke-miterlimit="10"/>
<path d="M56.1113 40.6313V66.0001" stroke="white" stroke-width="3" stroke-miterlimit="10"/>
<path d="M56.1111 40.6313H61.6997V66.0001H56.1111V40.6313Z" stroke="white" stroke-width="3" stroke-miterlimit="10"/>
<rect x="18" y="2" width="31" height="31" stroke="white" stroke-width="3" stroke-miterlimit="10"/>
</svg>
