<svg width="64" height="69" viewBox="0 0 64 69" fill="none" xmlns="http://www.w3.org/2000/svg">
<path d="M29.529 53.3875H41.3272C44.018 53.3875 46.0879 51.325 46.0879 48.6438C46.0879 45.9625 44.018 43.9 41.3272 43.9H31.1849C27.6662 43.9 21.6636 37.0937 8.4165 43.9" stroke="#383838" stroke-width="3" stroke-miterlimit="10"/>
<path d="M8.4165 64.3188H38.8434L52.9184 60.4001L60.5769 51.5313C62.2327 49.4688 62.0258 46.5813 60.1629 44.9313C58.3 43.2813 55.4022 43.4876 53.5394 45.3438L46.2949 53.3876H40.7063" stroke="#383838" stroke-width="3" stroke-miterlimit="10"/>
<path d="M7.58862 41.6313V67.0001" stroke="#383838" stroke-width="3" stroke-miterlimit="10"/>
<path d="M7.58861 41.6313H2V67.0001H7.58861V41.6313Z" stroke="#383838" stroke-width="3" stroke-miterlimit="10"/>
<path d="M40.5477 6.09791C40.5477 6.09791 37.4064 3.32617 32.0477 3.32617C26.8738 3.32617 24.1021 6.28269 24.1021 10.1631C24.1021 13.8588 28.9064 15.7066 32.2325 17.0001C35.7434 18.1088 40.9173 19.4023 40.9173 24.0218C40.9173 28.2718 35.9282 30.1196 32.4173 30.1196C29.276 30.1196 24.8412 28.087 22.8086 26.424" stroke="#383838" stroke-width="3" stroke-miterlimit="10"/>
<path d="M32.0479 0V34" stroke="#383838" stroke-width="3" stroke-miterlimit="10"/>
</svg>
