<svg width="56" height="76" viewBox="0 0 56 76" fill="none" xmlns="http://www.w3.org/2000/svg">
<path d="M41.031 62.2193C39.0485 64.5736 36.942 64.5736 34.9595 62.2193C33.5965 62.5911 32.6053 62.4672 31.8618 62.0954V73.8667L38.0572 68.9104L44.2526 73.8667V61.9715C43.3853 62.4672 42.2701 62.4672 41.031 62.2193Z" stroke="white" stroke-width="3" stroke-miterlimit="10" stroke-linejoin="round"/>
<path d="M21.8252 19.3471H34.216" stroke="white" stroke-width="3" stroke-miterlimit="10" stroke-linejoin="round"/>
<path d="M11.9126 26.7816H44.1287" stroke="white" stroke-width="3" stroke-miterlimit="10" stroke-linejoin="round"/>
<path d="M11.9126 34.2161H44.1287" stroke="white" stroke-width="3" stroke-miterlimit="10" stroke-linejoin="round"/>
<path d="M44.1288 68.9104H54.0414V14.3908L41.6506 2H2V68.9104H31.7379" stroke="white" stroke-width="3" stroke-miterlimit="10" stroke-linejoin="round"/>
<path d="M41.6504 2V14.3908H54.0412" stroke="white" stroke-width="3" stroke-miterlimit="10" stroke-linejoin="round"/>
<path d="M41.0309 43.3853C44.1286 42.6419 45.7394 43.8809 45.9873 46.9787C48.8371 48.2177 49.4567 50.0764 47.8459 52.8023C49.4567 55.5283 48.8371 57.3869 45.9873 58.626C45.7394 61.7237 44.1286 62.9628 41.0309 62.2194C39.0484 64.5736 36.942 64.5736 34.9594 62.2194C31.8617 62.9628 30.2509 61.7237 30.0031 58.626C27.1532 57.3869 26.5337 55.5283 28.1445 52.8023C26.5337 50.0764 27.1532 48.2177 30.0031 46.9787C30.2509 43.8809 31.8617 42.6419 34.9594 43.3853C36.942 41.0311 38.9245 41.0311 41.0309 43.3853Z" stroke="white" stroke-width="3" stroke-miterlimit="10" stroke-linejoin="round"/>
</svg>
