<svg width="24" height="24" viewBox="0 0 24 24" fill="none" xmlns="http://www.w3.org/2000/svg">
<path d="M19.3049 2H4.69506C3.20665 2 2 3.20659 2 4.69504V19.3049C2 20.7933 3.2066 21.9999 4.69506 21.9999H11.9006L11.9128 14.853H10.0561C9.81477 14.853 9.61892 14.6579 9.61799 14.4166L9.60909 12.1129C9.60816 11.8703 9.80459 11.6731 10.0472 11.6731H11.9006V9.44709C11.9006 6.86384 13.4783 5.45724 15.7827 5.45724H17.6737C17.9157 5.45724 18.1118 5.65339 18.1118 5.89537V7.83789C18.1118 8.07978 17.9158 8.27587 17.674 8.27602L16.5135 8.27655C15.2603 8.27655 15.0176 8.87207 15.0176 9.74602V11.6731H17.7714C18.0338 11.6731 18.2373 11.9022 18.2064 12.1628L17.9334 14.4666C17.9072 14.687 17.7203 14.8531 17.4983 14.8531H15.0299L15.0176 22H19.305C20.7934 22 22 20.7934 22 19.305V4.69504C22 3.20659 20.7934 2 19.3049 2Z" fill="#2BA5FD"/>
</svg>
