<svg width="72" height="72" viewBox="0 0 72 72" fill="none" xmlns="http://www.w3.org/2000/svg">
<path d="M60.985 59.4828C57.7081 56.6155 52.5196 54.4308 45.9657 53.202C45.01 53.0655 44.3273 52.2462 44.3273 51.2905C44.3273 50.1981 44.3273 49.1058 44.3273 48.0135C44.3273 45.4193 47.4677 42.1424 47.7407 38.4558C48.8331 36.2712 49.3792 34.0866 49.3792 32.3116C49.3792 31.2193 49.1061 30.5366 48.56 29.9905C48.8331 28.6251 49.1061 27.1231 49.3792 25.6212C50.4715 19.6135 48.2869 15.2443 43.0984 13.3328C41.1869 12.6501 33.2677 11.2847 30.2638 8.41738C29.1715 7.32507 29.9907 13.1962 28.8984 13.7424C23.71 16.0635 21.6619 19.7501 22.7542 25.7578C23.0273 27.2597 23.3004 28.7616 23.5734 30.127C23.0273 30.6731 22.7542 31.3558 22.7542 32.4481C22.7542 34.0866 23.3004 36.2712 24.3927 38.5924C24.5292 42.2789 27.8061 45.2828 27.8061 48.1501C27.8061 49.2424 27.8061 50.4712 27.8061 51.427C27.8061 52.3828 27.1234 53.202 26.1677 53.3385C19.7504 54.4308 14.4254 56.752 11.1484 59.6193" stroke="#383838" stroke-width="3" stroke-miterlimit="10"/>
<path d="M36.1346 70.2692C54.9866 70.2692 70.2692 54.9866 70.2692 36.1346C70.2692 17.2826 54.9866 2 36.1346 2C17.2826 2 2 17.2826 2 36.1346C2 54.9866 17.2826 70.2692 36.1346 70.2692Z" stroke="#383838" stroke-width="3" stroke-miterlimit="10"/>
</svg>
