<svg width="72" height="73" viewBox="0 0 72 73" fill="none" xmlns="http://www.w3.org/2000/svg">
<path d="M60.985 59.8481C57.7081 56.9808 52.5196 54.7962 45.9657 53.5674C45.01 53.4308 44.3273 52.6116 44.3273 51.6558C44.3273 50.5635 44.3273 49.4712 44.3273 48.3789C44.3273 45.7847 47.4677 42.5077 47.7407 38.8212C48.8331 36.6366 49.3792 34.452 49.3792 32.677C49.3792 31.5847 49.1061 30.902 48.56 30.3558C48.8331 28.9904 49.1061 27.4885 49.3792 25.9866C50.4715 19.9789 48.2869 15.6097 43.0984 13.6981C41.1869 13.0154 33.2677 11.65 30.2638 8.78274C29.1715 7.69043 29.9907 13.5616 28.8984 14.1077C23.71 16.4289 21.6619 20.1154 22.7542 26.1231C23.0273 27.625 23.3004 29.127 23.5734 30.4924C23.0273 31.0385 22.7542 31.7212 22.7542 32.8135C22.7542 34.452 23.3004 36.6366 24.3927 38.9577C24.5292 42.6443 27.8061 45.6481 27.8061 48.5154C27.8061 49.6077 27.8061 50.8366 27.8061 51.7924C27.8061 52.7481 27.1234 53.5674 26.1677 53.7039C19.7504 54.7962 14.4254 57.1174 11.1484 59.9847" stroke="white" stroke-width="3" stroke-miterlimit="10"/>
<path d="M36.1346 70.6346C54.9866 70.6346 70.2692 55.352 70.2692 36.5C70.2692 17.6479 54.9866 2.36536 36.1346 2.36536C17.2826 2.36536 2 17.6479 2 36.5C2 55.352 17.2826 70.6346 36.1346 70.6346Z" stroke="white" stroke-width="3" stroke-miterlimit="10"/>
</svg>
