<svg width="16" height="16" viewBox="0 0 16 16" fill="none" xmlns="http://www.w3.org/2000/svg">
<path d="M8 1.39876e-06L6.59 1.41L12.17 7L-1.22392e-06 7L-1.57361e-06 9L12.17 9L6.59 14.59L8 16L16 8L8 1.39876e-06Z" fill="#383838"/>
</svg>
