<svg width="133" height="28" viewBox="0 0 133 28" fill="none" xmlns="http://www.w3.org/2000/svg">
<path d="M9.78259 22.2827H0V0H2.87723V19.644H9.78259V22.2827Z" fill="white"/>
<path d="M22.4424 15.3927H14.3142V17.0785C14.3142 18.8377 15.4651 19.9372 17.1195 19.9372C18.8458 19.9372 19.7809 19.0576 19.8528 17.5916H22.4424C22.3704 20.7435 20.1406 22.5026 16.9756 22.5026C15.4651 22.5026 14.1703 21.9895 13.1633 20.9634C12.1563 19.9372 11.5808 18.6911 11.5808 17.1518V12.2408C11.5808 10.6283 12.0843 9.23561 13.1633 8.20943C14.1703 7.18325 15.537 6.67017 17.1195 6.67017C18.63 6.67017 19.9248 7.18326 20.9318 8.13613C21.9388 9.16231 22.4424 10.4084 22.4424 12.0942V15.3927ZM19.709 13.1937V12.1675C19.709 10.3351 18.702 9.23561 16.9756 9.23561C15.3931 9.23561 14.3142 10.3351 14.3142 12.0942V13.1937H19.709Z" fill="white"/>
<path d="M29.4197 28V25.4346H30.8583C32.6566 25.4346 33.5917 24.555 33.5917 22.7958V20.9634C32.7285 21.9895 31.5776 22.5026 30.139 22.5026C28.7004 22.5026 27.5495 22.0628 26.6864 21.0367C25.8232 20.0838 25.3916 18.7644 25.3916 17.0785V12.1675C25.3916 8.94242 27.4057 6.67017 30.3548 6.67017C31.7934 6.67017 32.8724 7.10996 33.6636 8.13613V6.89006H36.3251V22.7958C36.3251 26.1675 34.4549 27.9267 31.1461 27.9267H29.4197V28ZM33.5198 12.2408C33.5198 10.3351 32.3689 9.23561 30.7864 9.23561C29.2039 9.23561 28.053 10.3351 28.053 12.0942V17.0052C28.053 18.7644 29.2039 19.7906 30.7864 19.7906C32.5847 19.7906 33.5198 18.5445 33.5198 16.2723V12.2408Z" fill="white"/>
<path d="M50.7111 22.2827H48.1216V20.8901C47.1865 21.9895 46.0356 22.5026 44.525 22.5026C41.7197 22.5026 39.7776 20.5236 39.7776 17.0785V12.1675C39.7776 8.94242 41.7917 6.67017 44.7408 6.67017C46.1794 6.67017 47.2584 7.10996 48.0496 8.13613V6.89006H50.7111V22.2827ZM47.9058 12.2408C47.9058 10.3351 46.7549 9.23561 45.1724 9.23561C43.5899 9.23561 42.439 10.2618 42.439 12.0942V17.1518C42.439 18.911 43.5899 19.9372 45.1724 19.9372C46.9707 19.9372 47.9058 18.7644 47.9058 16.4189V12.2408Z" fill="white"/>
<path d="M57.4009 22.2828H54.6675V2.7854H57.4009V22.2828Z" fill="white"/>
<path d="M70.9956 22.2827H68.1184V0H70.9956V22.2827Z" fill="white"/>
<path d="M85.8854 22.2827H83.152V12.021C83.152 10.3351 82.2169 9.30891 80.6345 9.30891C79.052 9.30891 77.9011 10.555 77.9011 12.0942V22.2827H75.1677V6.89006H77.8292V8.35603C78.6204 7.25655 79.6994 6.67017 81.2099 6.67017C84.0871 6.67017 85.8135 8.72252 85.8135 11.8744V22.2827H85.8854Z" fill="white"/>
<path d="M94.4451 22.2828H91.8556L87.4678 6.96344H90.345L93.2222 17.8849H93.2942L96.3872 6.89014H99.1206L94.4451 22.2828Z" fill="white"/>
<path d="M111.061 15.3927H102.933V17.0785C102.933 18.8377 104.084 19.9372 105.738 19.9372C107.465 19.9372 108.4 19.0576 108.472 17.5916H111.133C111.061 20.7435 108.831 22.5026 105.666 22.5026C104.156 22.5026 102.861 21.9895 101.854 20.9634C100.847 19.9372 100.271 18.6911 100.271 17.1518V12.2408C100.271 10.6283 100.775 9.23561 101.854 8.20943C102.861 7.18325 104.228 6.67017 105.81 6.67017C107.321 6.67017 108.615 7.18326 109.622 8.13613C110.63 9.16231 111.133 10.4084 111.133 12.0942V15.3927H111.061ZM108.328 13.1937V12.1675C108.328 10.3351 107.321 9.23561 105.594 9.23561C104.012 9.23561 102.933 10.3351 102.933 12.0942V13.1937H108.328Z" fill="white"/>
<path d="M121.275 11.3613C121.131 9.96859 120.196 9.16231 118.686 9.16231C117.319 9.16231 116.312 9.822 116.312 10.9215C116.312 12.6806 119.117 13.0471 121.419 13.8534C123.002 14.4398 124.224 15.7592 124.224 17.7382C124.224 19.2042 123.721 20.377 122.642 21.1833C121.563 21.9895 120.268 22.4293 118.758 22.4293C115.737 22.4293 113.507 20.8168 113.363 17.5183H116.096C116.24 19.1309 117.247 19.9372 118.901 19.9372C120.34 19.9372 121.347 19.2042 121.347 17.9581C121.347 16.1257 118.542 15.6859 116.312 14.9529C114.801 14.4398 113.507 13.1204 113.507 11.2147C113.507 8.35603 115.737 6.67017 118.758 6.67017C121.563 6.67017 123.721 8.06284 123.865 11.3613H121.275Z" fill="white"/>
<path d="M132.928 22.2827H131.633C128.612 22.2827 127.461 21.0366 127.461 17.8848V9.38217H125.231V6.89002H127.461V4.17798H130.195V6.96332H132.928V9.45546H130.195V17.5916C130.195 19.2042 130.626 19.7905 131.993 19.7905H133V22.2827H132.928Z" fill="white"/>
<path d="M64.0903 22.2829H61.3569V1.39282H64.0903V22.2829Z" fill="#2BA5FD"/>
</svg>
