<svg width="71" height="62" viewBox="0 0 71 62" fill="none" xmlns="http://www.w3.org/2000/svg">
<path d="M35.2924 59.1808L2 19.29L14.4846 2.4939H56.1001L68.5847 19.29L35.2924 59.1808Z" stroke="#383838" stroke-width="3" stroke-miterlimit="10"/>
<path d="M2 19.29H68.5847" stroke="#383838" stroke-width="3" stroke-miterlimit="10"/>
<path d="M35.2925 59.1808L47.7771 19.29" stroke="#383838" stroke-width="3" stroke-miterlimit="10"/>
<path d="M35.2923 59.1808L22.8076 19.29" stroke="#383838" stroke-width="3" stroke-miterlimit="10"/>
<path d="M14.4844 2.4939L22.8075 19.29" stroke="#383838" stroke-width="3" stroke-miterlimit="10"/>
<path d="M22.8076 19.29L35.2923 2.4939" stroke="#383838" stroke-width="3" stroke-miterlimit="10"/>
<path d="M35.2925 2.4939L47.7771 19.29" stroke="#383838" stroke-width="3" stroke-miterlimit="10"/>
<path d="M47.7769 19.29L56.0999 2.4939" stroke="#383838" stroke-width="3" stroke-miterlimit="10"/>
</svg>
