<svg width="44" height="72" viewBox="0 0 44 72" fill="none" xmlns="http://www.w3.org/2000/svg">
<path d="M21.8309 35.4792L24.3973 32.9128L26.2637 36.1791L29.53 34.4293L30.3466 38.0455L33.9628 37.3456L33.7295 40.9619L37.3457 41.3118L36.1792 44.8114L39.5621 46.0946L37.4624 49.0109L40.3787 51.3439L37.4624 53.5603L39.5621 56.5933L36.1792 57.8765L37.3457 61.376L33.7295 61.6093L33.9628 65.3422L30.3466 64.6423L29.53 68.1419L26.2637 66.5088L24.3973 69.6584L21.8309 67.092L19.1479 69.6584L17.3982 66.5088L14.1319 68.1419L13.3153 64.6423L9.69909 65.3422L9.81574 61.6093L6.19951 61.376L7.48269 57.8765L3.98312 56.5933L6.19951 53.5603L3.2832 51.3439L6.19951 49.0109L3.98312 46.0946L7.48269 44.8114L6.19951 41.3118L9.81574 40.9619L9.69909 37.3456L13.3153 38.0455L14.1319 34.4293L17.3982 36.1791L19.1479 32.9128L21.8309 35.4792Z" stroke="#383838" stroke-width="3" stroke-miterlimit="10" stroke-linejoin="round"/>
<path d="M17.1648 29.9966L5.14962 18.9146C3.16652 17.0482 2 14.4818 2 11.6822C2 6.31614 6.31614 2 11.6822 2H31.863C37.3457 2 41.6618 6.31614 41.6618 11.6822C41.6618 14.3652 40.4953 17.0482 38.5122 18.798L26.497 29.9966" stroke="#383838" stroke-width="3" stroke-miterlimit="10"/>
<path d="M10.2824 13.4318L21.831 24.1638L33.3796 13.4318C35.1294 11.7987 33.9629 8.99902 31.6298 8.99902H12.0322C9.69917 8.99902 8.53264 11.7987 10.2824 13.4318Z" stroke="#383838" stroke-width="3" stroke-miterlimit="10"/>
<path d="M21.9479 60.3263C27.102 60.3263 31.2801 56.1481 31.2801 50.9941C31.2801 45.84 27.102 41.6619 21.9479 41.6619C16.7939 41.6619 12.6157 45.84 12.6157 50.9941C12.6157 56.1481 16.7939 60.3263 21.9479 60.3263Z" stroke="#383838" stroke-width="3" stroke-miterlimit="10"/>
</svg>
